2022/06/17 11:46:28 [error] [exception.CHttpException.404] CHttpException: Unable to resolve the request "img/cards/notebooks/note_3.jpg". in D:\xampp\htdocs\infra_logistics\yii\framework\web\CWebApplication.php:287
Stack trace:
#0 D:\xampp\htdocs\infra_logistics\yii\framework\web\CWebApplication.php(142): CWebApplication->runController('img/cards/noteb...')
#1 D:\xampp\htdocs\infra_logistics\yii\framework\base\CApplication.php(162): CWebApplication->processRequest()
#2 D:\xampp\htdocs\infra_logistics\index.php(13): CApplication->run()
#3 {main}
REQUEST_URI=/infra_logistics/img/cards/notebooks/note_3.jpg
HTTP_REFERER=http://localhost/infra_logistics/
---
2022/06/17 11:46:28 [warning] [system.web.CHttpSession] session_start(): Cannot start session when headers already sent
2022/06/17 11:46:28 [warning] [system.web.CHttpSession] session_start(): Cannot start session when headers already sent
2022/06/17 11:46:28 [error] [exception.CHttpException.404] CHttpException: Unable to resolve the request "img/cards/notebooks/note_4.jpg". in D:\xampp\htdocs\infra_logistics\yii\framework\web\CWebApplication.php:287
Stack trace:
#0 D:\xampp\htdocs\infra_logistics\yii\framework\web\CWebApplication.php(142): CWebApplication->runController('img/cards/noteb...')
#1 D:\xampp\htdocs\infra_logistics\yii\framework\base\CApplication.php(162): CWebApplication->processRequest()
#2 D:\xampp\htdocs\infra_logistics\index.php(13): CApplication->run()
#3 {main}
REQUEST_URI=/infra_logistics/img/cards/notebooks/note_4.jpg
HTTP_REFERER=http://localhost/infra_logistics/
---
2022/06/17 11:46:28 [warning] [system.web.CHttpSession] session_start(): Cannot start session when headers already sent
2022/06/17 11:46:28 [warning] [system.web.CHttpSession] session_start(): Cannot start session when headers already sent
